{
	"info": {
		"_postman_id": "dfbd34a2-a311-42f6-b148-3b70cad89982",
		"name": "Capstone 2",
		"schema": "https://schema.getpostman.com/json/collection/v2.1.0/collection.json",
		"_exporter_id": "23956885"
	},
	"item": [
		{
			"name": "Register",
			"request": {
				"method": "POST",
				"header": [],
				"body": {
					"mode": "raw",
					"raw": "{\r\n    \"firstName\" : \"Hyde\",\r\n    \"lastName\" : \"Kiddo\",\r\n    \"email\" : \"admin@mail.com\",\r\n    \"userName\" : \"Hyde1234\",\r\n    \"password\" : \"admin1234\",\r\n    \"mobileNumber\" : \"0955-534-6790\"\r\n}",
					"options": {
						"raw": {
							"language": "json"
						}
					}
				},
				"url": {
					"raw": "localhost:4000/users/register",
					"host": [
						"localhost"
					],
					"port": "4000",
					"path": [
						"users",
						"register"
					]
				}
			},
			"response": []
		},
		{
			"name": "Login",
			"request": {
				"method": "POST",
				"header": [],
				"body": {
					"mode": "raw",
					"raw": "{\r\n    \"userName\" : \"Sol1234\",\r\n    \"password\" : \"admin1234\"\r\n}",
					"options": {
						"raw": {
							"language": "json"
						}
					}
				},
				"url": {
					"raw": "localhost:4000/users/login",
					"host": [
						"localhost"
					],
					"port": "4000",
					"path": [
						"users",
						"login"
					]
				}
			},
			"response": []
		},
		{
			"name": "Login Non-Admin",
			"request": {
				"method": "POST",
				"header": [],
				"body": {
					"mode": "raw",
					"raw": "{\r\n    \"userName\" : \"Yu1234\",\r\n    \"password\" : \"user1234\"\r\n}",
					"options": {
						"raw": {
							"language": "json"
						}
					}
				},
				"url": {
					"raw": "localhost:4000/users/login",
					"host": [
						"localhost"
					],
					"port": "4000",
					"path": [
						"users",
						"login"
					]
				}
			},
			"response": []
		},
		{
			"name": "Set as admin",
			"request": {
				"auth": {
					"type": "bearer",
					"bearer": [
						{
							"key": "token",
							"value": "eyJhbGciOiJIUzI1NiIsInR5cCI6IkpXVCJ9.eyJpZCI6IjYzNmEzMzhlMWI5ZTMxMTQ2MGYyMTI3YyIsImVtYWlsIjoiU29sMTIzNCIsImlzQWRtaW4iOnRydWUsImlhdCI6MTY2NzkwNDUwN30.8Sr0eivedxSHUjce7cL6nBcQ5sURnfz_fK1GX1CckXo",
							"type": "string"
						}
					]
				},
				"method": "PUT",
				"header": [],
				"url": {
					"raw": "localhost:4000/users/636a33a11b9e311460f2127e/setAdmin",
					"host": [
						"localhost"
					],
					"port": "4000",
					"path": [
						"users",
						"636a33a11b9e311460f2127e",
						"setAdmin"
					]
				}
			},
			"response": []
		},
		{
			"name": "Add Product",
			"request": {
				"auth": {
					"type": "bearer",
					"bearer": [
						{
							"key": "token",
							"value": "eyJhbGciOiJIUzI1NiIsInR5cCI6IkpXVCJ9.eyJpZCI6IjYzNmEyNzc5MTgyZWI4YTI5M2ViOTVmMiIsImVtYWlsIjoiU29sMTIzNCIsImlzQWRtaW4iOnRydWUsImlhdCI6MTY2NzkwMzczNX0.cZvtJXiOF1q6GiInge_K81FbA6dvH5qwsA-BkHYweSQ",
							"type": "string"
						}
					]
				},
				"method": "POST",
				"header": [],
				"body": {
					"mode": "raw",
					"raw": "{\r\n    \"productName\" : \"Mojito\",\r\n\t\"productDescription\" : \"Minty fresh cocktail\",\r\n\t\"productPrice\" : 550\r\n}",
					"options": {
						"raw": {
							"language": "json"
						}
					}
				},
				"url": {
					"raw": "localhost:4000/products/addProduct",
					"host": [
						"localhost"
					],
					"port": "4000",
					"path": [
						"products",
						"addProduct"
					]
				}
			},
			"response": []
		},
		{
			"name": "Available products",
			"request": {
				"method": "GET",
				"header": [],
				"url": {
					"raw": "localhost:4000/products/",
					"host": [
						"localhost"
					],
					"port": "4000",
					"path": [
						"products",
						""
					]
				}
			},
			"response": []
		},
		{
			"name": "Specific user",
			"request": {
				"method": "GET",
				"header": [],
				"url": {
					"raw": "localhost:4000/users/6364eb60633af4e3d6d4a415",
					"host": [
						"localhost"
					],
					"port": "4000",
					"path": [
						"users",
						"6364eb60633af4e3d6d4a415"
					]
				}
			},
			"response": []
		},
		{
			"name": "all users",
			"request": {
				"method": "GET",
				"header": [],
				"url": {
					"raw": "localhost:4000/users/all",
					"host": [
						"localhost"
					],
					"port": "4000",
					"path": [
						"users",
						"all"
					]
				}
			},
			"response": []
		},
		{
			"name": "get all products",
			"request": {
				"method": "GET",
				"header": [],
				"url": {
					"raw": "localhost:4000/products/all",
					"host": [
						"localhost"
					],
					"port": "4000",
					"path": [
						"products",
						"all"
					]
				}
			},
			"response": []
		},
		{
			"name": "Specific product",
			"request": {
				"method": "GET",
				"header": [],
				"url": {
					"raw": "localhost:4000/products/636a36033ac85ef6231b7242",
					"host": [
						"localhost"
					],
					"port": "4000",
					"path": [
						"products",
						"636a36033ac85ef6231b7242"
					]
				}
			},
			"response": []
		},
		{
			"name": "update product",
			"request": {
				"auth": {
					"type": "bearer",
					"bearer": [
						{
							"key": "token",
							"value": "eyJhbGciOiJIUzI1NiIsInR5cCI6IkpXVCJ9.eyJpZCI6IjYzNmEzMzhlMWI5ZTMxMTQ2MGYyMTI3YyIsImVtYWlsIjoiU29sMTIzNCIsImlzQWRtaW4iOnRydWUsImlhdCI6MTY2NzkwNjQ3NX0.-h4hxDMb2Wjf3xyC6UXMQVpc4eKhMD1mWFv4DCN7j3M",
							"type": "string"
						}
					]
				},
				"method": "PUT",
				"header": [],
				"body": {
					"mode": "raw",
					"raw": "{\r\n    \"price\" : 650\r\n}",
					"options": {
						"raw": {
							"language": "json"
						}
					}
				},
				"url": {
					"raw": "localhost:4000/products/636a3a5cfcfc9319e452bb37",
					"host": [
						"localhost"
					],
					"port": "4000",
					"path": [
						"products",
						"636a3a5cfcfc9319e452bb37"
					]
				}
			},
			"response": []
		},
		{
			"name": "Archive Product",
			"request": {
				"auth": {
					"type": "bearer",
					"bearer": [
						{
							"key": "token",
							"value": "eyJhbGciOiJIUzI1NiIsInR5cCI6IkpXVCJ9.eyJpZCI6IjYzNjRlYjYwNjMzYWY0ZTNkNmQ0YTQxNSIsImVtYWlsIjoiU29sMTIzNCIsImlzQWRtaW4iOnRydWUsImlhdCI6MTY2Nzg5Nzg0N30.ujvg8XUmzWV6kampg8_pMgkh80b-whSjzJFmWa2DdSU",
							"type": "string"
						}
					]
				},
				"method": "PUT",
				"header": [],
				"url": {
					"raw": "localhost:4000/products/636a3a5cfcfc9319e452bb37/archive",
					"host": [
						"localhost"
					],
					"port": "4000",
					"path": [
						"products",
						"636a3a5cfcfc9319e452bb37",
						"archive"
					]
				}
			},
			"response": []
		},
		{
			"name": "Activate product",
			"request": {
				"auth": {
					"type": "bearer",
					"bearer": [
						{
							"key": "token",
							"value": "eyJhbGciOiJIUzI1NiIsInR5cCI6IkpXVCJ9.eyJpZCI6IjYzNjRlYjYwNjMzYWY0ZTNkNmQ0YTQxNSIsImVtYWlsIjoiU29sMTIzNCIsImlzQWRtaW4iOnRydWUsImlhdCI6MTY2NzgxNzAzNn0.dEOMn6dhPa_DNfUDFI-WneWn_OPqrspW3SxdcL81WOU",
							"type": "string"
						}
					]
				},
				"method": "PUT",
				"header": [],
				"url": {
					"raw": "localhost:4000/products/636a3a5cfcfc9319e452bb37/activate",
					"host": [
						"localhost"
					],
					"port": "4000",
					"path": [
						"products",
						"636a3a5cfcfc9319e452bb37",
						"activate"
					]
				}
			},
			"response": []
		},
		{
			"name": "Checkout",
			"request": {
				"auth": {
					"type": "bearer",
					"bearer": [
						{
							"key": "token",
							"value": "eyJhbGciOiJIUzI1NiIsInR5cCI6IkpXVCJ9.eyJpZCI6IjYzNmEzMzc0MWI5ZTMxMTQ2MGYyMTI3YSIsImVtYWlsIjoiWXUxMjM0IiwiaXNBZG1pbiI6ZmFsc2UsImlhdCI6MTY2Nzk3NzE2MX0.ag0UZaO8MQA6fekKT681mm_JrwMOx5QImFqNfTAn5Bc",
							"type": "string"
						}
					]
				},
				"method": "POST",
				"header": [],
				"body": {
					"mode": "raw",
					"raw": "{\r\n    \"totalAmount\" : 900,\r\n    \"productId\": \"636a3a5cfcfc9319e452bb37\",\r\n    \"quantity\" : 3\r\n}",
					"options": {
						"raw": {
							"language": "json"
						}
					}
				},
				"url": {
					"raw": "localhost:4000/users/checkout",
					"host": [
						"localhost"
					],
					"port": "4000",
					"path": [
						"users",
						"checkout"
					]
				}
			},
			"response": []
		},
		{
			"name": "get orders",
			"request": {
				"auth": {
					"type": "bearer",
					"bearer": [
						{
							"key": "token",
							"value": "eyJhbGciOiJIUzI1NiIsInR5cCI6IkpXVCJ9.eyJpZCI6IjYzNmEzMzc0MWI5ZTMxMTQ2MGYyMTI3YSIsImVtYWlsIjoiWXUxMjM0IiwiaXNBZG1pbiI6ZmFsc2UsImlhdCI6MTY2Nzk3NzE2MX0.ag0UZaO8MQA6fekKT681mm_JrwMOx5QImFqNfTAn5Bc",
							"type": "string"
						}
					]
				},
				"method": "GET",
				"header": [],
				"url": {
					"raw": "localhost:4000/users/636a33741b9e311460f2127a/orders",
					"host": [
						"localhost"
					],
					"port": "4000",
					"path": [
						"users",
						"636a33741b9e311460f2127a",
						"orders"
					]
				}
			},
			"response": []
		}
	]
}